{
  "cviceni": {
    "version": {
      "global": "<%= version %>",
      "content": 3
    },
    "id": 50,
    "katalog": [
      "public",
      "test"
    ],
    "language": "en",
    "slug": "what-happened-at-croydon-airport",
    "nazev": "What Happened at Croydon Airport?",
    "autor": [
      "Michal Frankl"
    ],
    "klicovaSlova": {
      "rvp": [
        "World War II",
        "Nazism",
        "the Holocaust",
        "refugees",
        "ethical dimension of history",
        "creating"
      ],
      "koncept": [],
      "b4": [],
      "historylab": []
    },
    "casovaOsa": {
      "roky": [],
      "epochy": [
        {
          "refId": "czech",
          "obdobi": []
        },
        {
          "refId": "world",
          "obdobi": []
        }
      ]
    },
    "anotace": {
      "ucitel": "This activity works with a photograph capturing a critical moment in the story of a refugee from Czechoslovakia trying to find sanctuary in the United Kingdom in 1939. Using additional documents, students reveal unexpected layers of the story. With the aid of a family archive, they give an identity back to the nameless refugee. They try out the critical work of a journalist to write a report on refugees.",
      "verejna": "A photograph from 1939. A young man is being carried out. Why? Where? What happened? Let’s reconstruct his story using various documents and write a newspaper article. Give the man his identity and think about the experience of a refugee during the time of Nazism."
    },
    "trvani": 45,
    "obtiznost": "",
    "funkce": [
      "lupa",
      "text",
      "svg",
      "znacky",
      "cteni",
      "text-editor"
    ],
    "pdf": {
      "doporucenyPostup": "what-happened-at-croydon-airport.pdf"
    },
    "uvodniObrazek": "what-happened-at-croydon-airport/pic-00-1280w.jpg",
    "color": {
      "rgb": {
        "r": 112,
        "g": 112,
        "b": 112
      },
      "hsv": {
        "h": 0,
        "s": 0,
        "v": 43.92
      }
    }
  },
  "slajd": [
    {
      "zadani": {
        "hlavni": "Look at the photograph.",
        "rozsirujici": ""
      },
      "napoveda": {
        "aktivity": [
          "lupa"
        ],
        "text": "When you left click on the image, you can magnify sections of it."
      },
      "prameny": [
        "what-happened-at-croydon-airport/pic-00-1280w.jpg"
      ],
      "popisky": [
        "A refugee at Croydon Airport near London, 31 March 1939. Source: The Wiener Library for the Study of the Holocaust and Genocide in London"
      ]
    },
    {
      "class": [
        "half-slide-previous"
      ],
      "zadani": {
        "hlavni": "Mark the people and other elements in the photo that can help you figure out what’s going on, and describe them. ",
        "rozsirujici": ""
      },
      "napoveda": {
        "aktivity": [
          "svg"
        ],
        "text": "You create marks by left clicking on the photo with the mouse. When you right click, you open a menu offering the following operations: change the color of the mark, (T) write a comment, (X) delete the mark."
      },
      "svg": {
        "soubory": [
          {
            "id": "svg-1",
            "soubor": "what-happened-at-croydon-airport/pic-00-1280w.jpg",
            "funkce": [
              "text",
              "znacky"
            ]
          }
        ]
      }
    },
    {
      "class": [
        "half-slide-active"
      ],
      "zadani": {
        "hlavni": "Write down questions about the case.",
        "rozsirujici": ""
      },
      "napoveda": {
        "aktivity": [
          "text"
        ],
        "text": "Write answers to the questions or other comments into the text box (as assigned)."
      },
      "uzivatelskyText": {
        "otazky": [
          {
            "id": "text-1",
            "zadani": "Imagine that you are journalists and a colleague has brought this photograph in the editorial office. The editor-in-chief wants you to write an article accompanying the photograph. Note down at least three questions that you need to know the answer to.",
            "instrukce": "I need to find out…",
            "minDelka": 10,
            "maxDelka": 999
          }
        ]
      }
    },
    {
      "class": "half-slide-previous",
      "zadani": {
        "hlavni": "Read the text and mark important information.",
        "rozsirujici": "The man being carried out in the photograph is Oskar Goldberg. A number of materials about his case have remained well preserved in his brother Norbert’s family archive."
      },
      "napoveda": {
        "aktivity": [
          "cteni"
        ],
        "text": "With the left mouse button, highlight the chosen word or phrase. This offers a list from which you can choose the category you’re marking. You can erase the highlight using the X."
      },
      "textovyEditor": {
        "texty": [
          {
            "id": 1,
            "text": "text-00",
            "funkce": "zvyraznovani",
            "menu": [
              {
                "title": "Important information",
                "commandName": "importantInformation1",
                "color": "orange"
              }
            ]
          }
        ]
      },
      "popisky": [
        "The memories were compiled from interviews with Norbert Goldberg (recorded by David Lawson, edited by Lukáš Přibyl). Source: The Jewish Museum in Prague"
      ]
    },
    {
      "class": [
        "half-slide-active"
      ],
      "zadani": {
        "hlavni": "Look up the answers to your questions in the memories. You can adjust the phrasing of the questions.",
        "rozsirujici": ""
      },
      "napoveda": {
        "aktivity": [
          "text"
        ],
        "text": "Write answers to the questions or other comments into the text box (as assigned)."
      },
      "uzivatelskyText": {
        "otazky": [
          {
            "id": "text-2",
            "duplikovat": [
              "text-1"
            ],
            "zadani": "My questions:",
            "instrukce": "",
            "minDelka": 10,
            "maxDelka": 999
          },
          {
            "id": "text-3",
            "zadani": "My findings:",
            "instrukce": "",
            "minDelka": 10,
            "maxDelka": 999
          }
        ]
      }
    },
    {
      "class": "half-slide-previous",
      "zadani": {
        "hlavni": "Read the letter and mark important information.",
        "rozsirujici": ""
      },
      "napoveda": {
        "aktivity": [
          "cteni"
        ],
        "text": "With the left mouse button, highlight the chosen word or phrase. This offers a list from which you can choose the category you’re marking. You can erase the highlight using the X."
      },
      "textovyEditor": {
        "texty": [
          {
            "id": 2,
            "text": "text-01",
            "funkce": "zvyraznovani",
            "menu": [
              {
                "title": "Important information",
                "commandName": "importantInformation2",
                "color": "orange"
              }
            ]
          }
        ]
      },
      "popisky": [
        "A letter to Oskar Goldberg from his family in the Protectorate, 9 May 1939. Source: The Jewish Museum in Prague"
      ]
    },
    {
      "class": [
        "half-slide-active"
      ],
      "zadani": {
        "hlavni": "Fill in your findings up to now using the text of the letter. You can adjust the phrasing of the questions.",
        "rozsirujici": ""
      },
      "napoveda": {
        "aktivity": [
          "text"
        ],
        "text": "Write answers to the questions or other comments into the text box (as assigned)."
      },
      "uzivatelskyText": {
        "otazky": [
          {
            "id": "text-4",
            "duplikovat": [
              "text-2"
            ],
            "zadani": "My questions:",
            "instrukce": "",
            "minDelka": 10,
            "maxDelka": 999
          },
          {
            "id": "text-5",
            "duplikovat": [
              "text-3"
            ],
            "zadani": "My findings:",
            "instrukce": "",
            "minDelka": 10,
            "maxDelka": 999
          }
        ]
      }
    },
    {
      "zadani": {
        "hlavni": "Use the information you’ve discovered to write a news report.",
        "rozsirujici": ""
      },
      "napoveda": {
        "aktivity": [
          "text"
        ],
        "text": "Write answers to the questions or other comments into the text box (as assigned)."
      },
      "uzivatelskyText": {
        "layout": "horizontalni",
        "otazky": [
          {
            "id": "text-6",
            "duplikovat": [
              "text-5"
            ],
            "zadani": "My findings:",
            "instrukce": "",
            "minDelka": 10,
            "maxDelka": 999,
            "vyska": 25
          },
          {
            "id": "text-7",
            "zadani": "My news report:",
            "instrukce": "",
            "minDelka": 10,
            "maxDelka": 999,
            "vyska": 25
          }
        ]
      }
    },
    {
      "zadani": {
        "hlavni": "Look at the front page of the newspaper.",
        "rozsirujici": ""
      },
      "napoveda": {
        "aktivity": [
          "lupa"
        ],
        "text": "When you left click on the image, you can magnify sections of it."
      },
      "prameny": [
        "what-happened-at-croydon-airport/pic-01-1024h.jpg"
      ],
      "popisky": [
        "Source: The Daily Mail, 31 March 1939"
      ]
    },
    {
      "class": " half-slide-previous",
      "zadani": {
        "hlavni": "Read the text and mark important information.",
        "rozsirujici": ""
      },
      "napoveda": {
        "aktivity": [
          "cteni"
        ],
        "text": "With the left mouse button, highlight the chosen word or phrase. This offers a list from which you can choose the category you’re marking. You can erase the highlight using the X."
      },
      "textovyEditor": {
        "texty": [
          {
            "id": 3,
            "text": "text-02",
            "funkce": "zvyraznovani",
            "menu": [
              {
                "title": "Important information",
                "commandName": "importantInformation3",
                "color": "orange"
              }
            ]
          }
        ]
      },
      "popisky": [
        "Source: Manchester Guardian, 1 April 1939 (translated by Michal Frankl)"
      ]
    },
    {
      "class": [
        "half-slide-active"
      ],
      "zadani": {
        "hlavni": "Use the new information to edit your news report.",
        "rozsirujici": ""
      },
      "napoveda": {
        "aktivity": [
          "text"
        ],
        "text": "Write answers to the questions or other comments into the text box (as assigned)."
      },
      "uzivatelskyText": {
        "otazky": [
          {
            "id": "text-8",
            "duplikovat": [
              "text-7"
            ],
            "zadani": "My news report:",
            "instrukce": "",
            "minDelka": 10,
            "maxDelka": 999,
            "vyska": 25
          }
        ]
      }
    }
  ]
}