{
  "cviceni": {
    "version": {
      "global": "<%= version %>",
      "content": 1
    },
    "katalog": [
      "test"
    ],
    "language": "cs",
    "slug": "lidice-ve-filmu",
    "nazev": "Lidice ve filmu",
    "autor": [
      "Jaroslav Pinkas",
      "Petr Sedlák"
    ],
    "klicovaSlova": {
      "rvp": [
        "druhá světová válka"
      ],
      "koncept": [
        "vzpomínková kultura"
      ],
      "b4": [
        "vztah k minulosti"
      ],
      "historylab": [
        "porovnáváme prameny"
      ]
    },
    "casovaOsa": {
      "roky": [
        1942
      ],
      "epochy": [
        {
          "refId": "czech",
          "obdobi": []
        },
        {
          "refId": "world",
          "obdobi": [
            "druhá republika a tzv. protektorát"
          ]
        }
      ]
    },
    "anotace": {
      "ucitel": "V rámci cvičení žáci porovnají filmové ukázky popravy lidických mužů. Žáci rozřazují k ukázkám odpovídající způsoby využití filmového střihu, práce s kamerou a využití zvuku. Cvičení se stahuje k otázce, jaké skutečnosti mohou mít vliv na různá filmová zobrazení stejné historické události.",
      "verejna": "Tragická událost. Němečtí okupanti přivádí všechny muže z vesnice před jeden ze zdejších statků. Muži jsou zastřeleni, nejmladšímu je čtrnáct. Jedna událost a přece ji dva filmy zobrazují odlišně. V čem vlastně? Proč tomu tak může být?"
    },
    "trvani": 25,
    "obtiznost": "střední",
    "funkce": [
      "lupa",
      "cteni",
      "text",
      "svg",
      "razeni",
      "znacky"
    ],
    "pdf": {
      "doporucenyPostup": "lidice-ve-filmu.pdf"
    },
    "uvodniObrazek": "lidice-ve-filmu/pic-00-1280w.jpg",
    "id": 116,
    "color": {
      "rgb": {
        "r": 121,
        "g": 103,
        "b": 97
      },
      "hsv": {
        "h": 15,
        "s": 19.83,
        "v": 47.45
      }
    }
  },
  "slajd": [
    {
      "zadani": {
        "hlavni": "Podívejte se na ukázku z filmu.",
        "rozsirujici": ""
      },
      "napoveda": {
        "aktivity": [
          "video"
        ],
        "text": "Přehrávání videa se spustí po kliknutí do okna přehrávače. Klikáním do prostoru spuštěného videa dojde k pozastavení přehrávání a následně k jeho dalšímu pokračování. Pod přehrávaným videem se zobrazuje ukazatel průběhu přehrávání. Kliknutím do libovolné části této časové osy se můžete přesunout na požadované místo ve videu."
      },
      "media": {
        "nastaveni": {
          "layout": "vertikalni",
          "vzhled": "normalni"
        },
        "soubory": [
          {
            "soubor": "lidice-ve-fimu/video-00.mp4",
            "poster": "",
            "nazev": "",
            "popisek": "Film vznikl jako závěrečná část rozsáhlé válečné trilogie natočené k 30. výročí osvobození na základě zadání vládnoucí Komunistické strany Československa. Zdroj: Sokolovo [film], režie Otakar Vávra, 1974"
          }
        ]
      }
    },
    {
      "zadani": {
        "hlavni": "Jaké pocity ve vás ukázka z filmu vyvolává?",
        "rozsirujici": ""
      },
      "napoveda": {
        "aktivity": [
          "text"
        ],
        "text": "Do boxu pro text zapisujete odpověď na otázku, nebo jiný komentář (dle zadání)."
      },
      "uzivatelskyText": {
        "galerie": [
          {
            "soubor": "lidice-ve-filmu/pic-00-1280w.jpg",
            "popisek": "Filmový plakát ke snímku Sokolovo, 1974. Zdroj: Terryho ponožky"
          }
        ],
        "layout": "velka-galerie",
        "otazky": [
          {
            "id": "textovepole-1",
            "zadani": "",
            "instrukce": "Pociťuji...",
            "minDelka": 10,
            "maxDelka": 500
          }
        ]
      }
    },
    {
      "zadani": {
        "hlavni": "Podívejte se na ukázku z filmu.",
        "rozsirujici": ""
      },
      "napoveda": {
        "aktivity": [
          "video"
        ],
        "text": "Přehrávání videa se spustí po kliknutí do okna přehrávače. Klikáním do prostoru spuštěného videa dojde k pozastavení přehrávání a následně k jeho dalšímu pokračování. Pod přehrávaným videem se zobrazuje ukazatel průběhu přehrávání. Kliknutím do libovolné části této časové osy se můžete přesunout na požadované místo ve videu."
      },
      "media": {
        "nastaveni": {
          "layout": "vertikalni",
          "vzhled": "normalni"
        },
        "soubory": [
          {
            "soubor": "lidice-ve-fimu/video-01.mp4",
            "poster": "",
            "nazev": "",
            "popisek": "Film vznikl podle scénáře Zdeňka Mahlera. Vypráví o lidické tragédii perspektivou obyčejných lidí a je inspirován skutečným osudem jednoho z lidických mužů. Zdroj: Lidice [film], režie Petr Nikolaev, 2011 Zdroj: terryhoponozky.cz"
          }
        ]
      }
    },
    {
      "zadani": {
        "hlavni": "Jaké pocity ve vás ukázka z filmu vyvolává?",
        "rozsirujici": ""
      },
      "napoveda": {
        "aktivity": [
          "text"
        ],
        "text": "Do boxu pro text zapisujete odpověď na otázku, nebo jiný komentář (dle zadání)."
      },
      "uzivatelskyText": {
        "galerie": [
          {
            "soubor": "lidice-ve-filmu/pic-01-1024h.jpg",
            "popisek": "Filmový plakát ke snímku Lidice, 2011. Zdroj: ČSFD.cz"
          }
        ],
        "layout": "velka-galerie",
        "otazky": [
          {
            "id": "textovepole-2",
            "zadani": "",
            "instrukce": "Pociťuji...",
            "minDelka": 10,
            "maxDelka": 500
          }
        ]
      }
    },
    {
      "zadani": {
        "hlavni": "Srovnání filmových ukázek.",
        "rozsirujici": "Přiřaďte ke každé ukázce pět pojmů, které nejlépe charakterizují filmový střih, práci s kamerou a využití zvuku."
      },
      "napoveda": {
        "aktivity": [
          "razeni",
          "svg"
        ],
        "text": "Pomocí drag and drop přesouvejte položky z nabídky do obrázku.<br> Do obrázku můžete také kreslit a zapisovat další informace."
      },
      "svg": {
        "pretahovani": {
          "id": "pretahovani-1",
          "items": [
            {
              "objekt": "rychlý střih",
              "medium": "tag"
            },
            {
              "objekt": "pomalý střih",
              "medium": "tag"
            },
            {
              "objekt": "záběry na celek",
              "medium": "tag"
            },
            {
              "objekt": "záběry na detail",
              "medium": "tag"
            },
            {
              "objekt": "akční hudba",
              "medium": "tag"
            },
            {
              "objekt": "dramatická hudba",
              "medium": "tag"
            },
            {
              "objekt": "důraz na kolektiv",
              "medium": "tag"
            },
            {
              "objekt": "důraz na jednotlivce",
              "medium": "tag"
            },
            {
              "objekt": "osobní pohled",
              "medium": "tag"
            },
            {
              "objekt": "neosobní pohled",
              "medium": "tag"
            }
          ]
        },
        "soubory": [
          {
            "id": "svg-1",
            "soubor": "lidice-ve-filmu/pic-00-810w.jpg",
            "funkce": [
              "text",
              "znacky"
            ],
            "drop": true
          },
          {
            "id": "svg-2",
            "soubor": "lidice-ve-filmu/pic-01-1024h.jpg",
            "funkce": [
              "text",
              "znacky"
            ],
            "drop": true
          }
        ]
      },
      "popisky": [
        ""
      ]
    },
    {
      "zadani": {
        "hlavni": "Přečtěte si komentáře ke snímkům od uživatele filmové databáze. Odpovězte na otázku.",
        "rozsirujici": ""
      },
      "napoveda": {
        "aktivity": [
          "text"
        ],
        "text": "Do boxu pro text zapisujete odpověď na otázku, nebo jiný komentář (dle zadání)."
      },
      "uzivatelskyText": {
        "galerie": [
          {
            "typ": "svg",
            "objekt": {
              "id": "svg-1-dup",
              "soubor": "lidice-ve-filmu/pic-00-810w.jpg",
              "duplikovat": [
                "svg-1"
              ],
              "funkce": [
                "text",
                "znacky"
              ]
            }
          },
          {
            "typ": "svg",
            "objekt": {
              "id": "svg-2-dup",
              "soubor": "lidice-ve-filmu/pic-01-1024h.jpg",
              "duplikovat": [
                "svg-2"
              ],
              "funkce": [
                "text",
                "znacky"
              ]
            }
          },
          {
            "typ": "text",
            "objekt": "Český dobrodružný fiktivní válečný film nabitý všemi možnými tehdy známými herci... Pokud by se to mělo brát podle dobové přesnosti a historie, tak je snímek propagandistickým komunistickým odpadem. Naštěstí dnes už se ví, jak to bylo, jakým masomlýnkem naše jednotky musely projít a jaká byla ta podpora našich soudruhů z Rudé armády...",
            "popisek": "Komentář uživatele Big Bear k filmu Sokolovo, 31. července 2011. Zdroj. ČSFD.cz"
          },
          {
            "typ": "text",
            "objekt": "Rozhodně je dobře, že film vznikl. Osvěta je nutná. Zvlášť dnes, kdy středoškoláci v anketách nevědí, co byl koncentrační tábor... Na druhou stranu mám trochu pocit, že byl více natočen tak, aby jej chápali diváci i v zahraničí, kam je či bude distribuován.",
            "popisek": "Komentář uživatele Big Bear k filmu Lidice, 8. června 2011. Zdroj. ČSFD.cz"
          }
        ],
        "layout": "velka-galerie",
        "otazky": [
          {
            "id": "textovepole-3",
            "zadani": "Jaké skutečnosti podle vás mohly ovlivnit zobrazení popravy lidických mužů?",
            "instrukce": "Sokolovo 1974 \n\n\n\n\n\nLidice 2011",
            "minDelka": 20,
            "maxDelka": 999,
            "vyska": 10
          }
        ]
      }
    }
  ]
}