{
  "cviceni": {
    "version": {
      "global": "<%= version %>",
      "content": 3
    },
    "katalog": [
      "test",
      "public"
    ],
    "language": "cs",
    "slug": "co-nataceli",
    "nazev": "Co natáčeli?",
    "autor": [
      "Kamil Činátl"
    ],
    "klicovaSlova": {
      "rvp": [
        "Československo 70. léta"
      ],
      "koncept": [
        "propaganda",
        "dějiny ve veřejném prostoru"
      ],
      "b4": [
        "příčiny a důsledky"
      ],
      "historylab": [
        "formulujeme a ověřujeme hypotézu"
      ]
    },
    "casovaOsa": {
      "roky": [
        1977
      ],
      "epochy": [
        {
          "refId": "czech",
          "obdobi": [
            "poválečná doba a nástup komunismu"
          ]
        },
        {
          "refId": "world",
          "obdobi": []
        }
      ]
    },
    "anotace": {
      "ucitel": "Fotografie zachycuje natáčení demonstrace na Staroměstském náměstí v Praze. Jedná se o rekonstrukci vládní krize z února 1948. Film Vítězný lid měl připomenout a oslavit 30. výročí těchto událostí. Žáci se zamýšlejí, proč měl takový film vzniknout a co měl vyprávět. Reflektují politiku paměti normalizační KSČ.",
      "verejna": "Nechte se pozvat na natáčení filmu Vítězný lid. O čem film bude? Stál za vznikem umělecký záměr nebo politické zadání? Prozkoumejte fotografii a zjistěte více."
    },
    "trvani": 25,
    "obtiznost": "nízká",
    "funkce": [
      "lupa",
      "text",
      "svg",
      "znacky"
    ],
    "uvodniObrazek": "co-nataceli/pic-00-1024h.jpg",
    "id": 45,
    "color": {
      "rgb": {
        "r": 137,
        "g": 137,
        "b": 137
      },
      "hsv": {
        "h": 0,
        "s": 0,
        "v": 53.73
      }
    }
  },
  "slajd": [
    {
      "zadani": {
        "hlavni": "Prohlédněte si fotografii.",
        "rozsirujici": ""
      },
      "napoveda": {
        "aktivity": [
          "lupa"
        ],
        "text": "Při kliknutí levým tlačítkem do obrazu lupa přiblíží část obrazu ve výřezu."
      },
      "prameny": [
        "co-nataceli/pic-00-1024h.jpg"
      ]
    },
    {
      "class": [
        "half-slide-previous"
      ],
      "zadani": {
        "hlavni": "Označte důležité prvky na fotografii a popište je.",
        "rozsirujici": ""
      },
      "napoveda": {
        "aktivity": [
          "svg"
        ],
        "text": "Kliknutím na snímek levým tlačítkem myši označujete bod. Nakliknutím na bod pravým tlačítkem otevřete menu s nabídkou úkonů: změnit barvu bodu, (T) doplnit textový komentář, (X) smazat nakliknutý objekt."
      },
      "svg": {
        "soubory": [
          {
            "id": "svg-1",
            "soubor": "co-nataceli/pic-00-1024h.jpg",
            "funkce": [
              "text",
              "znacky"
            ]
          }
        ]
      }
    },
    {
      "class": [
        "half-slide-active"
      ],
      "zadani": {
        "hlavni": "Co dělají lidé na snímku?",
        "rozsirujici": ""
      },
      "napoveda": {
        "aktivity": [
          "text"
        ],
        "text": "Do boxu pro text zapisujete odpověď na otázku, nebo jiný komentář (dle zadání)."
      },
      "uzivatelskyText": {
        "otazky": [
          {
            "id": "text-1",
            "zadani": "",
            "instrukce": "Myslím si, že…",
            "minDelka": 2,
            "maxDelka": 400
          }
        ]
      }
    },
    {
      "class": [
        "half-slide-previous"
      ],
      "zadani": {
        "hlavni": "Přečtěte si popisku k fotografii. Nově zjištěné informace doplňte do fotografie červeně.",
        "rozsirujici": ""
      },
      "napoveda": {
        "aktivity": [
          "svg"
        ],
        "text": "Kliknutím na snímek levým tlačítkem myši označujete bod. Nakliknutím na bod pravým tlačítkem otevřete menu s nabídkou úkonů: změnit barvu bodu, (T) doplnit textový komentář, (X) smazat nakliknutý objekt."
      },
      "popisky": [
        "Celkový pohled na Staroměstské náměstí v Praze během natáčení filmu Vítězný lid v únoru 1977. Snímek režiséra Vojtěcha Trapla se připravoval k 30. výročí tzv. Vítězného února. Vítězný lid nepatřil k divácky oblíbeným filmům. Za normalizace vzniklo množství historických filmů, které zdůrazňovaly pozitivní roli KSČ v moderních dějinách. Foto Libor Hajský. Zdroj: ČTK"
      ],
      "svg": {
        "soubory": [
          {
            "id": "svg-2",
            "soubor": "co-nataceli/pic-00-1024h.jpg",
            "duplikovat": [
              "svg-1"
            ],
            "funkce": [
              "text",
              "znacky"
            ],
            "barvy": [
              "red"
            ]
          }
        ]
      }
    },
    {
      "class": [
        "half-slide-active"
      ],
      "zadani": {
        "hlavni": "Odpovězte na otázky.",
        "rozsirujici": ""
      },
      "napoveda": {
        "aktivity": [
          "text"
        ],
        "text": "Do boxu pro text zapisujete odpověď na otázku, nebo jiný komentář (dle zadání)."
      },
      "uzivatelskyText": {
        "otazky": [
          {
            "id": "text-3",
            "zadani": "Proč natáčeli film?",
            "instrukce": "Myslím si, že…",
            "minDelka": 2,
            "maxDelka": 400
          },
          {
            "id": "text-4",
            "zadani": "Co byste se o situaci nebo fotografii chtěli ještě dozvědět?",
            "instrukce": "Myslím si, že…",
            "minDelka": 2,
            "maxDelka": 400
          }
        ]
      }
    }
  ]
}