{
  "cviceni": {
    "version": {
      "global": "<%= version %>",
      "content": 3
    },
    "katalog": [
      "test",
      "public"
    ],
    "language": "cs",
    "slug": "politika-na-namesti",
    "nazev": "Politika na náměstí",
    "autor": [
      "Michal Kurz"
    ],
    "klicovaSlova": {
      "rvp": [
        "Československo 50. léta"
      ],
      "koncept": [
        "propaganda",
        "dějiny ve veřejném prostoru"
      ],
      "b4": [
        "trvání a změna"
      ],
      "historylab": [
        "sestavujeme podloženou odpověď"
      ]
    },
    "casovaOsa": {
      "roky": [
        1949
      ],
      "epochy": [
        {
          "refId": "czech",
          "obdobi": [
            "poválečná doba a nástup komunismu"
          ]
        },
        {
          "refId": "world",
          "obdobi": []
        }
      ]
    },
    "anotace": {
      "ucitel": "Cvičení pracuje s historickou fotografií zachycující výzdobu Václavského náměstí u příležitosti narozenin J. V. Stalina v roce 1949. Žáci označují na fotografii důležité prvky a barevně odlišují ty, které se přímo vztahují ke znázorněné události. Zamýšlejí se, jakým způsobem se politické dění může odrážet ve veřejném prostoru města. Cvičení lze využít k uvození či doplnění výkladu o proměně veřejného života v Československu po Únoru 1948 (kult osobnosti, role SSSR) i k obecnější diskuzi o povaze a dynamice historických změn a jejich schopnosti ne/měnit fyzickou podobu měst.",
      "verejna": "Co se to dnes děje na náměstí? Všechny domy vypadají jinak než obvykle. Že by za tím byla politika? Prohlédněte si fotografii, vnímejte atmosféru vyzdobeného města a popisujte detaily, které vás zaujmou. Dozvíte se, jak mohou politické události ovlivňovat prostředí kolem nás."
    },
    "trvani": 25,
    "obtiznost": "nízká",
    "funkce": [
      "lupa",
      "svg",
      "text",
      "kresleni",
      "znacky"
    ],
    "pdf": {
      "doporucenyPostup": "politika-na-namesti.pdf"
    },
    "uvodniObrazek": "politika-na-namesti/pic-00-1024h.jpg",
    "id": 63,
    "color": {
      "rgb": {
        "r": 138,
        "g": 138,
        "b": 138
      },
      "hsv": {
        "h": 0,
        "s": 0,
        "v": 54.12
      }
    }
  },
  "slajd": [
    {
      "zadani": {
        "hlavni": "Prohlédněte si fotografii.",
        "rozsirujici": ""
      },
      "napoveda": {
        "aktivity": [
          "lupa"
        ],
        "text": "Při kliknutí levým tlačítkem do obrazu lupa přiblíží část obrazu ve výřezu."
      },
      "prameny": [
        "politika-na-namesti/pic-00-1024h.jpg"
      ],
      "popisky": [
        "Praha, Václavské náměstí, 21. prosince 1949. Foto Alexandr Hampl. Zdroj: ČTK"
      ]
    },
    {
      "class": [
        "half-slide-previous"
      ],
      "zadani": {
        "hlavni": "Jak se proměnilo náměstí?",
        "rozsirujici": "Červeně označte na fotografii prvky, které se vztahují ke zobrazené politické události. Modře označte ostatní důležité prvky. Všechny označené prvky popište."
      },
      "napoveda": {
        "aktivity": [
          "svg"
        ],
        "text": "Kliknutím na snímek levým tlačítkem myši označujete bod. Nakliknutím na bod pravým tlačítkem otevřete menu s nabídkou úkonů: změnit barvu bodu, (T) doplnit textový komentář, (X) smazat nakliknutý objekt."
      },
      "svg": {
        "soubory": [
          {
            "id": "svg-1",
            "soubor": "politika-na-namesti/pic-00-1024h.jpg",
            "funkce": [
              "text",
              "znacky"
            ]
          }
        ]
      },
      "popisky": [
        "Praha, Václavské náměstí, 21. prosince 1949. Foto Alexandr Hampl. Zdroj: ČTK"
      ]
    },
    {
      "class": [
        "half-slide-active"
      ],
      "zadani": {
        "hlavni": "Popište proměnu náměstí.",
        "rozsirujici": ""
      },
      "napoveda": {
        "aktivity": [
          "text"
        ],
        "text": "Do boxu pro text zapisujete odpověď na otázku, nebo jiný komentář (dle zadání)."
      },
      "uzivatelskyText": {
        "otazky": [
          {
            "id": "text-1",
            "zadani": "V čem se náměstí v důsledku oslav proměnilo?",
            "instrukce": "Myslím si, že…",
            "minDelka": 10,
            "maxDelka": 400
          },
          {
            "id": "text-2",
            "zadani": "Které prvky na náměstí zůstaly i během oslav nezměněné a proč?",
            "instrukce": "Myslím si, že…",
            "minDelka": 10,
            "maxDelka": 400
          }
        ]
      }
    },
    {
      "zadani": {
        "hlavni": "Odpovězte na otázku.",
        "rozsirujici": ""
      },
      "napoveda": {
        "aktivity": [
          "text"
        ],
        "text": "Do boxu pro text zapisujete odpověď na otázku, nebo jiný komentář (dle zadání)."
      },
      "uzivatelskyText": {
        "otazky": [
          {
            "id": "text-3",
            "zadani": "Co byste se chtěli dozvědět o životě na Václavském náměstí v roce 1949?",
            "instrukce": "Chtěl bych se dozvědět...",
            "minDelka": 10,
            "maxDelka": 400
          }
        ]
      }
    }
  ]
}